{
  "Packages": [
    {
      "Package": {
        "Id": "Exchange.Mail.Activities",
        "Version": "1.1.2"
      },
      "Assemblies": [
        "C:\\Users\\Shogun\\.nuget\\packages\\exchange.mail.activities/1.1.2\\lib/ExchangeMailActivities.dll",
        "C:\\Users\\Shogun\\.nuget\\packages\\microsoft.exchange.webservices/2.2.0\\lib/40/Microsoft.Exchange.WebServices.Auth.dll",
        "C:\\Users\\Shogun\\.nuget\\packages\\microsoft.exchange.webservices/2.2.0\\lib/40/Microsoft.Exchange.WebServices.dll",
        "C:\\Users\\Shogun\\.nuget\\packages\\msgreader/3.7.3\\lib/net45/MsgReader.dll",
        "C:\\Users\\Shogun\\.nuget\\packages\\openmcdf/2.2.1.3\\lib/net40/OpenMcdf.dll"
      ]
    },
    {
      "Package": {
        "Id": "Microsoft.Exchange.WebServices",
        "Version": "2.2.0"
      },
      "Assemblies": [
        "C:\\Users\\Shogun\\.nuget\\packages\\microsoft.exchange.webservices/2.2.0\\lib/40/Microsoft.Exchange.WebServices.Auth.dll",
        "C:\\Users\\Shogun\\.nuget\\packages\\microsoft.exchange.webservices/2.2.0\\lib/40/Microsoft.Exchange.WebServices.dll"
      ]
    },
    {
      "Package": {
        "Id": "MsgReader",
        "Version": "3.7.3"
      },
      "Assemblies": [
        "C:\\Users\\Shogun\\.nuget\\packages\\msgreader/3.7.3\\lib/net45/MsgReader.dll",
        "C:\\Users\\Shogun\\.nuget\\packages\\openmcdf/2.2.1.3\\lib/net40/OpenMcdf.dll"
      ]
    },
    {
      "Package": {
        "Id": "UiPath.Excel.Activities",
        "Version": "2.6.2"
      },
      "Assemblies": [
        "C:\\Users\\Shogun\\.nuget\\packages\\closedxml/0.87.1\\lib/net40/ClosedXML.dll",
        "C:\\Users\\Shogun\\.nuget\\packages\\csvhelper/2.13.5\\lib/net40-client/CsvHelper.dll",
        "C:\\Users\\Shogun\\.nuget\\packages\\documentformat.openxml/2.5.0\\lib/DocumentFormat.OpenXml.dll",
        "C:\\Users\\Shogun\\.nuget\\packages\\microsoft.visualstudio.ole.interop/7.10.6071\\lib/Microsoft.VisualStudio.OLE.Interop.dll",
        "C:\\Users\\Shogun\\.nuget\\packages\\npoi/2.4.1\\lib/net45/NPOI.OOXML.dll",
        "C:\\Users\\Shogun\\.nuget\\packages\\npoi/2.4.1\\lib/net45/NPOI.OpenXml4Net.dll",
        "C:\\Users\\Shogun\\.nuget\\packages\\npoi/2.4.1\\lib/net45/NPOI.OpenXmlFormats.dll",
        "C:\\Users\\Shogun\\.nuget\\packages\\npoi/2.4.1\\lib/net45/NPOI.dll",
        "C:\\Users\\Shogun\\.nuget\\packages\\sharpziplib/1.0.0\\lib/net45/ICSharpCode.SharpZipLib.dll",
        "C:\\Users\\Shogun\\.nuget\\packages\\uipath.excel.activities/2.6.2\\lib/net461/UiPath.Excel.Activities.Design.dll",
        "C:\\Users\\Shogun\\.nuget\\packages\\uipath.excel.activities/2.6.2\\lib/net461/UiPath.Excel.Activities.dll",
        "C:\\Users\\Shogun\\.nuget\\packages\\uipath.excel.activities/2.6.2\\lib/net461/UiPath.Excel.dll"
      ]
    },
    {
      "Package": {
        "Id": "UiPath.PDF.Activities",
        "Version": "2.1.0"
      },
      "Assemblies": [
        "C:\\Users\\Shogun\\.nuget\\packages\\bitmiracle.docotic.pdf/5.2.8369\\lib/net40/BitMiracle.Docotic.Pdf.dll",
        "C:\\Users\\Shogun\\.nuget\\packages\\system.valuetuple/4.5.0\\lib/net461/System.ValueTuple.dll",
        "C:\\Users\\Shogun\\.nuget\\packages\\uipath.ocr.contracts/2.0.0\\lib/net45/UiPath.OCR.Contracts.dll",
        "C:\\Users\\Shogun\\.nuget\\packages\\uipath.pdf.activities/2.1.0\\lib/net461/UiPath.PDF.Activities.Design.dll",
        "C:\\Users\\Shogun\\.nuget\\packages\\uipath.pdf.activities/2.1.0\\lib/net461/UiPath.PDF.Activities.dll",
        "C:\\Users\\Shogun\\.nuget\\packages\\uipath.pdf.activities/2.1.0\\lib/net461/UiPath.PDF.dll"
      ]
    },
    {
      "Package": {
        "Id": "UiPath.System.Activities",
        "Version": "19.7.0"
      },
      "Assemblies": [
        "C:\\Users\\Shogun\\.nuget\\packages\\csvhelper/2.13.5\\lib/net40-client/CsvHelper.dll",
        "C:\\Users\\Shogun\\.nuget\\packages\\microsoft.aspnet.signalr.client/2.4.0\\lib/net45/Microsoft.AspNet.SignalR.Client.dll",
        "C:\\Users\\Shogun\\.nuget\\packages\\microsoft.rest.clientruntime/2.3.20\\lib/net461/Microsoft.Rest.ClientRuntime.dll",
        "C:\\Users\\Shogun\\.nuget\\packages\\newtonsoft.json/11.0.2\\lib/net45/Newtonsoft.Json.dll",
        "C:\\Users\\Shogun\\.nuget\\packages\\uipath.system.activities/19.7.0\\lib/net461/ActiproSoftware.Docking.Wpf.dll",
        "C:\\Users\\Shogun\\.nuget\\packages\\uipath.system.activities/19.7.0\\lib/net461/ActiproSoftware.Ribbon.Wpf.dll",
        "C:\\Users\\Shogun\\.nuget\\packages\\uipath.system.activities/19.7.0\\lib/net461/ActiproSoftware.Shared.Wpf.dll",
        "C:\\Users\\Shogun\\.nuget\\packages\\uipath.system.activities/19.7.0\\lib/net461/ActiproSoftware.SyntaxEditor.Addons.DotNet.Wpf.dll",
        "C:\\Users\\Shogun\\.nuget\\packages\\uipath.system.activities/19.7.0\\lib/net461/ActiproSoftware.SyntaxEditor.Wpf.dll",
        "C:\\Users\\Shogun\\.nuget\\packages\\uipath.system.activities/19.7.0\\lib/net461/ActiproSoftware.Text.Addons.DotNet.Wpf.dll",
        "C:\\Users\\Shogun\\.nuget\\packages\\uipath.system.activities/19.7.0\\lib/net461/ActiproSoftware.Text.LLParser.Wpf.dll",
        "C:\\Users\\Shogun\\.nuget\\packages\\uipath.system.activities/19.7.0\\lib/net461/ActiproSoftware.Text.Wpf.dll",
        "C:\\Users\\Shogun\\.nuget\\packages\\uipath.system.activities/19.7.0\\lib/net461/ActiproSoftware.Wizard.Wpf.dll",
        "C:\\Users\\Shogun\\.nuget\\packages\\uipath.system.activities/19.7.0\\lib/net461/UiPath.OrchestratorClient.dll",
        "C:\\Users\\Shogun\\.nuget\\packages\\uipath.system.activities/19.7.0\\lib/net461/UiPath.System.Activities.Design.dll",
        "C:\\Users\\Shogun\\.nuget\\packages\\uipath.system.activities/19.7.0\\lib/net461/UiPath.System.Activities.dll"
      ]
    },
    {
      "Package": {
        "Id": "UiPath.UIAutomation.Activities",
        "Version": "19.7.0"
      },
      "Assemblies": [
        "C:\\Users\\Shogun\\.nuget\\packages\\avalonedit/5.0.3\\lib/Net40/ICSharpCode.AvalonEdit.dll",
        "C:\\Users\\Shogun\\.nuget\\packages\\extended.wpf.toolkit/2.8.0\\lib/net40/Xceed.Wpf.AvalonDock.Themes.Aero.dll",
        "C:\\Users\\Shogun\\.nuget\\packages\\extended.wpf.toolkit/2.8.0\\lib/net40/Xceed.Wpf.AvalonDock.Themes.Metro.dll",
        "C:\\Users\\Shogun\\.nuget\\packages\\extended.wpf.toolkit/2.8.0\\lib/net40/Xceed.Wpf.AvalonDock.Themes.VS2010.dll",
        "C:\\Users\\Shogun\\.nuget\\packages\\extended.wpf.toolkit/2.8.0\\lib/net40/Xceed.Wpf.AvalonDock.dll",
        "C:\\Users\\Shogun\\.nuget\\packages\\extended.wpf.toolkit/2.8.0\\lib/net40/Xceed.Wpf.DataGrid.dll",
        "C:\\Users\\Shogun\\.nuget\\packages\\extended.wpf.toolkit/2.8.0\\lib/net40/Xceed.Wpf.Toolkit.dll",
        "C:\\Users\\Shogun\\.nuget\\packages\\humanizer.core/2.4.2\\lib/netstandard2.0/Humanizer.dll",
        "C:\\Users\\Shogun\\.nuget\\packages\\uipath/19.7.7128.27029\\lib/UiPath.Interop.dll",
        "C:\\Users\\Shogun\\.nuget\\packages\\uipath.ocr.contracts/2.0.0\\lib/net45/UiPath.OCR.Contracts.dll",
        "C:\\Users\\Shogun\\.nuget\\packages\\uipath.uiautomation.activities/19.7.0\\lib/net461/ActiproSoftware.DataGrid.Contrib.Wpf.dll",
        "C:\\Users\\Shogun\\.nuget\\packages\\uipath.uiautomation.activities/19.7.0\\lib/net461/ActiproSoftware.Docking.Wpf.dll",
        "C:\\Users\\Shogun\\.nuget\\packages\\uipath.uiautomation.activities/19.7.0\\lib/net461/ActiproSoftware.Editors.Wpf.dll",
        "C:\\Users\\Shogun\\.nuget\\packages\\uipath.uiautomation.activities/19.7.0\\lib/net461/ActiproSoftware.Ribbon.Wpf.dll",
        "C:\\Users\\Shogun\\.nuget\\packages\\uipath.uiautomation.activities/19.7.0\\lib/net461/ActiproSoftware.Shared.Wpf.dll",
        "C:\\Users\\Shogun\\.nuget\\packages\\uipath.uiautomation.activities/19.7.0\\lib/net461/ActiproSoftware.SyntaxEditor.Addons.DotNet.Wpf.dll",
        "C:\\Users\\Shogun\\.nuget\\packages\\uipath.uiautomation.activities/19.7.0\\lib/net461/ActiproSoftware.SyntaxEditor.Wpf.dll",
        "C:\\Users\\Shogun\\.nuget\\packages\\uipath.uiautomation.activities/19.7.0\\lib/net461/ActiproSoftware.Text.Addons.DotNet.Wpf.dll",
        "C:\\Users\\Shogun\\.nuget\\packages\\uipath.uiautomation.activities/19.7.0\\lib/net461/ActiproSoftware.Text.LLParser.Wpf.dll",
        "C:\\Users\\Shogun\\.nuget\\packages\\uipath.uiautomation.activities/19.7.0\\lib/net461/ActiproSoftware.Text.Wpf.dll",
        "C:\\Users\\Shogun\\.nuget\\packages\\uipath.uiautomation.activities/19.7.0\\lib/net461/ActiproSoftware.Wizard.Wpf.dll",
        "C:\\Users\\Shogun\\.nuget\\packages\\uipath.uiautomation.activities/19.7.0\\lib/net461/UiPath.UIAutomation.Activities.Design.dll",
        "C:\\Users\\Shogun\\.nuget\\packages\\uipath.uiautomation.activities/19.7.0\\lib/net461/UiPath.UiAutomation.Activities.dll",
        "C:\\Users\\Shogun\\.nuget\\packages\\uipath.uiautomation.activities/19.7.0\\lib/net461/UiPath.Wizards.dll",
        "C:\\Users\\Shogun\\.nuget\\packages\\uipath.vision/1.6.1\\lib/net452/UiPath.Vision.AbbyyCloud.dll",
        "C:\\Users\\Shogun\\.nuget\\packages\\uipath.vision/1.6.1\\lib/net452/UiPath.Vision.AbbyyFRE11.dll",
        "C:\\Users\\Shogun\\.nuget\\packages\\uipath.vision/1.6.1\\lib/net452/UiPath.Vision.AbbyyFRE12.dll",
        "C:\\Users\\Shogun\\.nuget\\packages\\uipath.vision/1.6.1\\lib/net452/UiPath.Vision.AbbyyFRECommon.dll",
        "C:\\Users\\Shogun\\.nuget\\packages\\uipath.vision/1.6.1\\lib/net452/UiPath.Vision.AzureComputerVision.dll",
        "C:\\Users\\Shogun\\.nuget\\packages\\uipath.vision/1.6.1\\lib/net452/UiPath.Vision.Core.dll",
        "C:\\Users\\Shogun\\.nuget\\packages\\uipath.vision/1.6.1\\lib/net452/UiPath.Vision.GoogleCloud.dll",
        "C:\\Users\\Shogun\\.nuget\\packages\\uipath.vision/1.6.1\\lib/net452/UiPath.Vision.Microsoft.dll",
        "C:\\Users\\Shogun\\.nuget\\packages\\uipath.vision/1.6.1\\lib/net452/UiPath.Vision.MicrosoftCloud.dll",
        "C:\\Users\\Shogun\\.nuget\\packages\\uipath.vision/1.6.1\\lib/net452/UiPath.Vision.Tesseract.dll",
        "C:\\Users\\Shogun\\.nuget\\packages\\uipath.vision/1.6.1\\lib/net452/UiPath.Vision.dll"
      ]
    },
    {
      "Package": {
        "Id": "Invoices.Sorter.Activities",
        "Version": "1.0.7"
      },
      "Assemblies": [
        "C:\\Users\\Shogun\\.nuget\\packages\\invoices.sorter.activities/1.0.7\\lib/InvoicesSorterActivities.dll",
        "C:\\Users\\Shogun\\.nuget\\packages\\microsoft.exchange.webservices/2.2.0\\lib/40/Microsoft.Exchange.WebServices.Auth.dll",
        "C:\\Users\\Shogun\\.nuget\\packages\\microsoft.exchange.webservices/2.2.0\\lib/40/Microsoft.Exchange.WebServices.dll"
      ]
    },
    {
      "Package": {
        "Id": "Text.Analysis.Activities",
        "Version": "1.0.2"
      },
      "Assemblies": [
        "C:\\Users\\Shogun\\.nuget\\packages\\text.analysis.activities/1.0.2\\lib/TextAnalysisCustomActivities.dll"
      ]
    }
  ],
  "Conflicts": [],
  "ResolvedDependencies": {
    "AvalonEdit": {
      "Id": "AvalonEdit",
      "Version": "5.0.3",
      "Dependencies": []
    },
    "BitMiracle.Docotic.Pdf": {
      "Id": "BitMiracle.Docotic.Pdf",
      "Version": "5.2.8369",
      "Dependencies": []
    },
    "ClosedXML": {
      "Id": "ClosedXML",
      "Version": "0.87.1",
      "Dependencies": [
        {
          "Item1": "DocumentFormat.OpenXml",
          "Item2": "[2.5.0, )"
        }
      ]
    },
    "CsvHelper": {
      "Id": "CsvHelper",
      "Version": "2.13.5",
      "Dependencies": []
    },
    "DocumentFormat.OpenXml": {
      "Id": "DocumentFormat.OpenXml",
      "Version": "2.5.0",
      "Dependencies": []
    },
    "Exchange.Mail.Activities": {
      "Id": "Exchange.Mail.Activities",
      "Version": "1.1.2",
      "Dependencies": [
        {
          "Item1": "Microsoft.Exchange.WebServices",
          "Item2": "[2.2.0, )"
        },
        {
          "Item1": "MsgReader",
          "Item2": "[3.7.3, )"
        },
        {
          "Item1": "OpenMcdf",
          "Item2": "[2.2.1.3, )"
        }
      ]
    },
    "Extended.Wpf.Toolkit": {
      "Id": "Extended.Wpf.Toolkit",
      "Version": "2.8.0",
      "Dependencies": []
    },
    "Humanizer.Core": {
      "Id": "Humanizer.Core",
      "Version": "2.4.2",
      "Dependencies": []
    },
    "Invoices.Sorter.Activities": {
      "Id": "Invoices.Sorter.Activities",
      "Version": "1.0.7",
      "Dependencies": [
        {
          "Item1": "Microsoft.Exchange.WebServices",
          "Item2": "[2.2.0, )"
        }
      ]
    },
    "Microsoft.AspNet.SignalR.Client": {
      "Id": "Microsoft.AspNet.SignalR.Client",
      "Version": "2.4.0",
      "Dependencies": [
        {
          "Item1": "Newtonsoft.Json",
          "Item2": "[6.0.4, )"
        }
      ]
    },
    "Microsoft.Exchange.WebServices": {
      "Id": "Microsoft.Exchange.WebServices",
      "Version": "2.2.0",
      "Dependencies": []
    },
    "Microsoft.Rest.ClientRuntime": {
      "Id": "Microsoft.Rest.ClientRuntime",
      "Version": "2.3.20",
      "Dependencies": [
        {
          "Item1": "Newtonsoft.Json",
          "Item2": "[10.0.3, )"
        }
      ]
    },
    "Microsoft.VisualStudio.OLE.Interop": {
      "Id": "Microsoft.VisualStudio.OLE.Interop",
      "Version": "7.10.6071",
      "Dependencies": []
    },
    "MsgReader": {
      "Id": "MsgReader",
      "Version": "3.7.3",
      "Dependencies": [
        {
          "Item1": "OpenMcdf",
          "Item2": "[2.2.1.3, )"
        }
      ]
    },
    "Newtonsoft.Json": {
      "Id": "Newtonsoft.Json",
      "Version": "11.0.2",
      "Dependencies": []
    },
    "NPOI": {
      "Id": "NPOI",
      "Version": "2.4.1",
      "Dependencies": [
        {
          "Item1": "SharpZipLib",
          "Item2": "[1.0.0, )"
        }
      ]
    },
    "OpenMcdf": {
      "Id": "OpenMcdf",
      "Version": "2.2.1.3",
      "Dependencies": []
    },
    "SharpZipLib": {
      "Id": "SharpZipLib",
      "Version": "1.0.0",
      "Dependencies": []
    },
    "System.ValueTuple": {
      "Id": "System.ValueTuple",
      "Version": "4.5.0",
      "Dependencies": []
    },
    "Text.Analysis.Activities": {
      "Id": "Text.Analysis.Activities",
      "Version": "1.0.2",
      "Dependencies": []
    },
    "UiPath": {
      "Id": "UiPath",
      "Version": "19.7.7128.27029",
      "Dependencies": []
    },
    "UiPath.Excel.Activities": {
      "Id": "UiPath.Excel.Activities",
      "Version": "2.6.2",
      "Dependencies": [
        {
          "Item1": "ClosedXML",
          "Item2": "[0.87.1, )"
        },
        {
          "Item1": "CsvHelper",
          "Item2": "[2.13.5, )"
        },
        {
          "Item1": "DocumentFormat.OpenXml",
          "Item2": "[2.5.0, )"
        },
        {
          "Item1": "Microsoft.VisualStudio.OLE.Interop",
          "Item2": "[7.10.6071, )"
        },
        {
          "Item1": "NPOI",
          "Item2": "[2.4.1, )"
        },
        {
          "Item1": "SharpZipLib",
          "Item2": "[1.0.0, )"
        }
      ]
    },
    "UiPath.OCR.Contracts": {
      "Id": "UiPath.OCR.Contracts",
      "Version": "2.0.0",
      "Dependencies": []
    },
    "UiPath.PDF.Activities": {
      "Id": "UiPath.PDF.Activities",
      "Version": "2.1.0",
      "Dependencies": [
        {
          "Item1": "UiPath.OCR.Contracts",
          "Item2": "[1.0.0, )"
        },
        {
          "Item1": "System.ValueTuple",
          "Item2": "[4.5.0, )"
        },
        {
          "Item1": "BitMiracle.Docotic.Pdf",
          "Item2": "[5.2.8369, )"
        }
      ]
    },
    "UiPath.System.Activities": {
      "Id": "UiPath.System.Activities",
      "Version": "19.7.0",
      "Dependencies": [
        {
          "Item1": "CsvHelper",
          "Item2": "[2.13.5, )"
        },
        {
          "Item1": "Microsoft.AspNet.SignalR.Client",
          "Item2": "[2.4.0, )"
        },
        {
          "Item1": "Microsoft.Rest.ClientRuntime",
          "Item2": "[2.3.20, )"
        },
        {
          "Item1": "Newtonsoft.Json",
          "Item2": "[11.0.2, )"
        }
      ]
    },
    "UiPath.UIAutomation.Activities": {
      "Id": "UiPath.UIAutomation.Activities",
      "Version": "19.7.0",
      "Dependencies": [
        {
          "Item1": "UiPath",
          "Item2": "[19.7.7128.27029, )"
        },
        {
          "Item1": "UiPath.Vision",
          "Item2": "[1.6.1, )"
        },
        {
          "Item1": "UiPath.OCR.Contracts",
          "Item2": "[2.0.0, )"
        },
        {
          "Item1": "AvalonEdit",
          "Item2": "[5.0.3, )"
        },
        {
          "Item1": "Extended.Wpf.Toolkit",
          "Item2": "[2.8.0, )"
        },
        {
          "Item1": "Humanizer.Core",
          "Item2": "[2.4.2, )"
        }
      ]
    },
    "UiPath.Vision": {
      "Id": "UiPath.Vision",
      "Version": "1.6.1",
      "Dependencies": []
    }
  }
}