{
  "name": "InvoicesSorterAssistant",
  "description": "Invoices Sorter Assistant",
  "main": "Main.xaml",
  "dependencies": {
    "Exchange.Mail.Activities": "[1.1.2]",
    "Microsoft.Exchange.WebServices": "[2.2.0]",
    "UiPath.Excel.Activities": "[2.6.2]",
    "UiPath.System.Activities": "[19.7.0]",
    "UiPath.UIAutomation.Activities": "[19.7.0]"
  },
  "webServices": [],
  "schemaVersion": "4.0",
  "studioVersion": "19.7.0.74",
  "projectVersion": "1.0.0",
  "runtimeOptions": {
    "autoDispose": false,
    "isPausable": true,
    "requiresUserInteraction": true,
    "supportsPersistence": false,
    "excludedLoggedData": [
      "Private:*",
      "*password*"
    ],
    "executionType": "Workflow"
  },
  "designOptions": {
    "projectProfile": "Developement",
    "outputType": "Process",
    "libraryOptions": {
      "includeOriginalXaml": false,
      "privateWorkflows": []
    }
  },
  "expressionLanguage": "VisualBasic"
}